waveRead/mcdt.vcd
$date
	Thu May 12 19:56:08 2022
$end
$version
	Icarus Verilog
$end
$timescale
	1ps
$end
$scope module mcdt $end
$var wire 32 ! ch0_data_i [31:0] $end
$var wire 1 " ch0_valid_i $end
$var wire 32 # ch1_data_i [31:0] $end
$var wire 1 $ ch1_valid_i $end
$var wire 32 % ch2_data_i [31:0] $end
$var wire 1 & ch2_valid_i $end
$var wire 1 ' clk_i $end
$var wire 1 ( rstn_i $end
$var wire 1 ) slv2_val_s $end
$var wire 1 * slv2_req_s $end
$var wire 32 + slv2_data_s [31:0] $end
$var wire 1 , slv1_val_s $end
$var wire 1 - slv1_req_s $end
$var wire 32 . slv1_data_s [31:0] $end
$var wire 1 / slv0_val_s $end
$var wire 1 0 slv0_req_s $end
$var wire 32 1 slv0_data_s [31:0] $end
$var wire 1 2 mcdt_val_o $end
$var wire 2 3 mcdt_id_o [1:0] $end
$var wire 32 4 mcdt_data_o [31:0] $end
$var wire 1 5 ch2_ready_o $end
$var wire 6 6 ch2_margin_o [5:0] $end
$var wire 1 7 ch1_ready_o $end
$var wire 6 8 ch1_margin_o [5:0] $end
$var wire 1 9 ch0_ready_o $end
$var wire 6 : ch0_margin_o [5:0] $end
$var wire 1 ; a2s2_ack_s $end
$var wire 1 < a2s1_ack_s $end
$var wire 1 = a2s0_ack_s $end
$scope module inst_arbiter $end
$var wire 32 > arb_data_o [31:0] $end
$var wire 2 ? arb_id_o [1:0] $end
$var wire 1 ' clk_i $end
$var wire 1 2 data_val_o $end
$var wire 1 ( rstn_i $end
$var wire 1 ) slv2_val_i $end
$var wire 1 * slv2_req_i $end
$var wire 32 @ slv2_data_i [31:0] $end
$var wire 1 , slv1_val_i $end
$var wire 1 - slv1_req_i $end
$var wire 32 A slv1_data_i [31:0] $end
$var wire 1 / slv0_val_i $end
$var wire 1 0 slv0_req_i $end
$var wire 32 B slv0_data_i [31:0] $end
$var wire 1 ; a2s2_ack_o $end
$var wire 1 < a2s1_ack_o $end
$var wire 1 = a2s0_ack_o $end
$var reg 32 C arb_data_r [31:0] $end
$var reg 2 D arb_id_r [1:0] $end
$var reg 3 E c_state [2:0] $end
$var reg 1 F data_val_r $end
$var reg 3 G n_state [2:0] $end
$upscope $end
$scope module inst_slva_fifo_0 $end
$var wire 1 = a2sx_ack_i $end
$var wire 32 H chx_data_i [31:0] $end
$var wire 1 " chx_valid_i $end
$var wire 1 ' clk_i $end
$var wire 1 I rd_en_s $end
$var wire 1 ( rstn_i $end
$var wire 6 J slvx_margin_o [5:0] $end
$var wire 1 K full_s $end
$var wire 1 L empty_s $end
$var wire 6 M data_cnt_s [5:0] $end
$var reg 1 9 chx_ready_o $end
$var reg 6 N rd_pointer_r [5:0] $end
$var reg 32 O slvx_data_o [31:0] $end
$var reg 1 0 slvx_req_o $end
$var reg 1 / slvx_val_o $end
$var reg 6 P wr_pointer_r [5:0] $end
$scope begin MEM_WRITE $end
$upscope $end
$scope begin READ_DATA $end
$upscope $end
$scope begin READ_POINTER $end
$upscope $end
$scope begin WRITE_POINTER $end
$upscope $end
$upscope $end
$scope module inst_slva_fifo_1 $end
$var wire 1 < a2sx_ack_i $end
$var wire 32 Q chx_data_i [31:0] $end
$var wire 1 $ chx_valid_i $end
$var wire 1 ' clk_i $end
$var wire 1 R rd_en_s $end
$var wire 1 ( rstn_i $end
$var wire 6 S slvx_margin_o [5:0] $end
$var wire 1 T full_s $end
$var wire 1 U empty_s $end
$var wire 6 V data_cnt_s [5:0] $end
$var reg 1 7 chx_ready_o $end
$var reg 6 W rd_pointer_r [5:0] $end
$var reg 32 X slvx_data_o [31:0] $end
$var reg 1 - slvx_req_o $end
$var reg 1 , slvx_val_o $end
$var reg 6 Y wr_pointer_r [5:0] $end
$scope begin MEM_WRITE $end
$upscope $end
$scope begin READ_DATA $end
$upscope $end
$scope begin READ_POINTER $end
$upscope $end
$scope begin WRITE_POINTER $end
$upscope $end
$upscope $end
$scope module inst_slva_fifo_2 $end
$var wire 1 ; a2sx_ack_i $end
$var wire 32 Z chx_data_i [31:0] $end
$var wire 1 & chx_valid_i $end
$var wire 1 ' clk_i $end
$var wire 1 [ rd_en_s $end
$var wire 1 ( rstn_i $end
$var wire 6 \ slvx_margin_o [5:0] $end
$var wire 1 ] full_s $end
$var wire 1 ^ empty_s $end
$var wire 6 _ data_cnt_s [5:0] $end
$var reg 1 5 chx_ready_o $end
$var reg 6 ` rd_pointer_r [5:0] $end
$var reg 32 a slvx_data_o [31:0] $end
$var reg 1 * slvx_req_o $end
$var reg 1 ) slvx_val_o $end
$var reg 6 b wr_pointer_r [5:0] $end
$scope begin MEM_WRITE $end
$upscope $end
$scope begin READ_DATA $end
$upscope $end
$scope begin READ_POINTER $end
$upscope $end
$scope begin WRITE_POINTER $end
$upscope $end
$upscope $end
$upscope $end
$enddefinitions $end
#0
$dumpvars
bx b
bx a
bx `
bx _
x^
x]
bx \
x[
bz Z
bx Y
bx X
bx W
bx V
xU
xT
bx S
xR
bz Q
bx P
bx O
bx N
bx M
xL
xK
bx J
xI
bz H
b0 G
0F
bx E
b11 D
b11111111111111111111111111111111 C
bx B
bx A
bx @
b11 ?
b11111111111111111111111111111111 >
x=
x<
x;
bx :
x9
bx 8
x7
bx 6
x5
b11111111111111111111111111111111 4
b11 3
02
bx 1
00
x/
bx .
0-
x,
bx +
0*
x)
z(
0'
z&
bz %
z$
bz #
z"
bz !
$end
#5000
0[
0;
0R
0<
0I
0=
0/
0,
0)
b0 E
1'
#10000
15
17
19
0]
0T
0K
1^
b100000 6
b100000 \
b100000 _
b0 `
b0 b
1U
b100000 8
b100000 S
b100000 V
b0 W
b0 Y
1L
b100000 :
b100000 J
b100000 M
b0 N
b0 P
0(
0'
#15000
1'
#20000
0'
#25000
1'
#30000
0'
#35000
1'
#40000
0'
#45000
1'
#50000
0'
#55000
1'
#60000
0'
#65000
1'
#70000
0'
#75000
1'
#80000
0'
#85000
1'
#90000
0'
#95000
1'
#100000
0'
#105000
1(
1'
#110000
0'
#115000
1'
#120000
0'
#125000
1"
b11000000000000000000000000000000 !
b11000000000000000000000000000000 H
1$
b11000001000000000000000000000000 #
b11000001000000000000000000000000 Q
1&
b11000010000000000000000000000000 %
b11000010000000000000000000000000 Z
1'
#130000
0'
#135000
b11000000000000000000000000000001 !
b11000000000000000000000000000001 H
b11000001000000000000000000000001 #
b11000001000000000000000000000001 Q
b11000010000000000000000000000001 %
b11000010000000000000000000000001 Z
b1 G
1*
1-
10
0^
b11111 6
b11111 \
b11111 _
b1 b
0U
b11111 8
b11111 S
b11111 V
b1 Y
0L
b11111 :
b11111 J
b11111 M
b1 P
1'
#140000
0'
#145000
b11000000000000000000000000000010 !
b11000000000000000000000000000010 H
b11000001000000000000000000000010 #
b11000001000000000000000000000010 Q
b11000010000000000000000000000010 %
b11000010000000000000000000000010 Z
b10 G
1I
1=
b11110 6
b11110 \
b11110 _
b10 b
b11110 8
b11110 S
b11110 V
b10 Y
b11110 :
b11110 J
b11110 M
b10 P
b1 E
1'
#150000
0'
#155000
b11000000000000000000000000000011 !
b11000000000000000000000000000011 H
b11000001000000000000000000000011 #
b11000001000000000000000000000011 Q
b11000010000000000000000000000011 %
b11000010000000000000000000000011 Z
b100 G
1R
1<
0I
0=
b11000000000000000000000000000000 4
b11000000000000000000000000000000 >
b11000000000000000000000000000000 C
b0 3
b0 ?
b0 D
12
1F
b11101 6
b11101 \
b11101 _
b11 b
b11101 8
b11101 S
b11101 V
b11 Y
b1 N
b11110 :
b11110 J
b11110 M
b11 P
1/
b10 E
b11000000000000000000000000000000 1
b11000000000000000000000000000000 B
b11000000000000000000000000000000 O
1'
#160000
0'
#165000
b11000000000000000000000000000100 !
b11000000000000000000000000000100 H
b11000001000000000000000000000100 #
b11000001000000000000000000000100 Q
b11000010000000000000000000000100 %
b11000010000000000000000000000100 Z
b1 G
1[
1;
0R
0<
b11000001000000000000000000000000 4
b11000001000000000000000000000000 >
b11000001000000000000000000000000 C
b1 3
b1 ?
b1 D
b11100 6
b11100 \
b11100 _
b100 b
b1 W
b11101 8
b11101 S
b11101 V
b100 Y
b11101 :
b11101 J
b11101 M
b100 P
b100 E
1,
0/
b11000001000000000000000000000000 .
b11000001000000000000000000000000 A
b11000001000000000000000000000000 X
1'
#170000
0'
#175000
b11000000000000000000000000000101 !
b11000000000000000000000000000101 H
b11000001000000000000000000000101 #
b11000001000000000000000000000101 Q
b11000010000000000000000000000101 %
b11000010000000000000000000000101 Z
b10 G
0[
0;
1I
1=
b11000010000000000000000000000000 4
b11000010000000000000000000000000 >
b11000010000000000000000000000000 C
b10 3
b10 ?
b10 D
b1 `
b11100 6
b11100 \
b11100 _
b101 b
b11100 8
b11100 S
b11100 V
b101 Y
b11100 :
b11100 J
b11100 M
b101 P
0,
1)
b1 E
b11000010000000000000000000000000 +
b11000010000000000000000000000000 @
b11000010000000000000000000000000 a
1'
#180000
0'
#185000
b11000000000000000000000000000110 !
b11000000000000000000000000000110 H
b11000001000000000000000000000110 #
b11000001000000000000000000000110 Q
b11000010000000000000000000000110 %
b11000010000000000000000000000110 Z
b100 G
1R
1<
0I
0=
b11000000000000000000000000000001 4
b11000000000000000000000000000001 >
b11000000000000000000000000000001 C
b0 3
b0 ?
b0 D
b11011 6
b11011 \
b11011 _
b110 b
b11011 8
b11011 S
b11011 V
b110 Y
b10 N
b11100 :
b11100 J
b11100 M
b110 P
b10 E
0)
1/
b11000000000000000000000000000001 1
b11000000000000000000000000000001 B
b11000000000000000000000000000001 O
1'
#190000
0'
#195000
b11000000000000000000000000000111 !
b11000000000000000000000000000111 H
b11000001000000000000000000000111 #
b11000001000000000000000000000111 Q
b11000010000000000000000000000111 %
b11000010000000000000000000000111 Z
b1 G
1[
1;
0R
0<
b11000001000000000000000000000001 4
b11000001000000000000000000000001 >
b11000001000000000000000000000001 C
b1 3
b1 ?
b1 D
b11010 6
b11010 \
b11010 _
b111 b
b10 W
b11011 8
b11011 S
b11011 V
b111 Y
b11011 :
b11011 J
b11011 M
b111 P
0/
1,
b100 E
b11000001000000000000000000000001 .
b11000001000000000000000000000001 A
b11000001000000000000000000000001 X
1'
#200000
0'
#205000
b11000000000000000000000000001000 !
b11000000000000000000000000001000 H
b11000001000000000000000000001000 #
b11000001000000000000000000001000 Q
b11000010000000000000000000001000 %
b11000010000000000000000000001000 Z
b10 G
0[
0;
1I
1=
b11000010000000000000000000000001 4
b11000010000000000000000000000001 >
b11000010000000000000000000000001 C
b10 3
b10 ?
b10 D
b10 `
b11010 6
b11010 \
b11010 _
b1000 b
b11010 8
b11010 S
b11010 V
b1000 Y
b11010 :
b11010 J
b11010 M
b1000 P
b1 E
1)
0,
b11000010000000000000000000000001 +
b11000010000000000000000000000001 @
b11000010000000000000000000000001 a
1'
#210000
0'
#215000
b11000000000000000000000000001001 !
b11000000000000000000000000001001 H
b11000001000000000000000000001001 #
b11000001000000000000000000001001 Q
b11000010000000000000000000001001 %
b11000010000000000000000000001001 Z
b100 G
1R
1<
0I
0=
b11000000000000000000000000000010 4
b11000000000000000000000000000010 >
b11000000000000000000000000000010 C
b0 3
b0 ?
b0 D
b11001 6
b11001 \
b11001 _
b1001 b
b11001 8
b11001 S
b11001 V
b1001 Y
b11 N
b11010 :
b11010 J
b11010 M
b1001 P
1/
0)
b10 E
b11000000000000000000000000000010 1
b11000000000000000000000000000010 B
b11000000000000000000000000000010 O
1'
#220000
0'
#225000
0"
b0 !
b0 H
0$
b0 #
b0 Q
0&
b0 %
b0 Z
b1 G
1[
1;
0R
0<
b11000001000000000000000000000010 4
b11000001000000000000000000000010 >
b11000001000000000000000000000010 C
b1 3
b1 ?
b1 D
b11000 6
b11000 \
b11000 _
b1010 b
b11 W
b11001 8
b11001 S
b11001 V
b1010 Y
b11001 :
b11001 J
b11001 M
b1010 P
b100 E
1,
0/
b11000001000000000000000000000010 .
b11000001000000000000000000000010 A
b11000001000000000000000000000010 X
1'
#230000
0'
#235000
b10 G
0[
0;
1I
1=
b11000010000000000000000000000010 4
b11000010000000000000000000000010 >
b11000010000000000000000000000010 C
b10 3
b10 ?
b10 D
b11001 6
b11001 \
b11001 _
b11 `
0,
1)
b1 E
b11000010000000000000000000000010 +
b11000010000000000000000000000010 @
b11000010000000000000000000000010 a
1'
#240000
0'
#245000
b100 G
1R
1<
0I
0=
b11000000000000000000000000000011 4
b11000000000000000000000000000011 >
b11000000000000000000000000000011 C
b0 3
b0 ?
b0 D
b11010 :
b11010 J
b11010 M
b100 N
b10 E
0)
1/
b11000000000000000000000000000011 1
b11000000000000000000000000000011 B
b11000000000000000000000000000011 O
1'
#250000
0'
#255000
b1 G
1[
1;
0R
0<
b11000001000000000000000000000011 4
b11000001000000000000000000000011 >
b11000001000000000000000000000011 C
b1 3
b1 ?
b1 D
b11010 8
b11010 S
b11010 V
b100 W
0/
1,
b100 E
b11000001000000000000000000000011 .
b11000001000000000000000000000011 A
b11000001000000000000000000000011 X
1'
#260000
0'
#265000
b10 G
0[
0;
1I
1=
b11000010000000000000000000000011 4
b11000010000000000000000000000011 >
b11000010000000000000000000000011 C
b10 3
b10 ?
b10 D
b11010 6
b11010 \
b11010 _
b100 `
b1 E
1)
0,
b11000010000000000000000000000011 +
b11000010000000000000000000000011 @
b11000010000000000000000000000011 a
1'
#270000
0'
#275000
b100 G
1R
1<
0I
0=
b11000000000000000000000000000100 4
b11000000000000000000000000000100 >
b11000000000000000000000000000100 C
b0 3
b0 ?
b0 D
b11011 :
b11011 J
b11011 M
b101 N
1/
0)
b10 E
b11000000000000000000000000000100 1
b11000000000000000000000000000100 B
b11000000000000000000000000000100 O
1'
#280000
0'
#285000
b1 G
1[
1;
0R
0<
b11000001000000000000000000000100 4
b11000001000000000000000000000100 >
b11000001000000000000000000000100 C
b1 3
b1 ?
b1 D
b11011 8
b11011 S
b11011 V
b101 W
b100 E
1,
0/
b11000001000000000000000000000100 .
b11000001000000000000000000000100 A
b11000001000000000000000000000100 X
1'
#290000
0'
#295000
b10 G
0[
0;
1I
1=
b11000010000000000000000000000100 4
b11000010000000000000000000000100 >
b11000010000000000000000000000100 C
b10 3
b10 ?
b10 D
b11011 6
b11011 \
b11011 _
b101 `
0,
1)
b1 E
b11000010000000000000000000000100 +
b11000010000000000000000000000100 @
b11000010000000000000000000000100 a
1'
#300000
0'
#305000
b100 G
1R
1<
0I
0=
b11000000000000000000000000000101 4
b11000000000000000000000000000101 >
b11000000000000000000000000000101 C
b0 3
b0 ?
b0 D
b11100 :
b11100 J
b11100 M
b110 N
b10 E
0)
1/
b11000000000000000000000000000101 1
b11000000000000000000000000000101 B
b11000000000000000000000000000101 O
1'
#310000
0'
#315000
b1 G
1[
1;
0R
0<
b11000001000000000000000000000101 4
b11000001000000000000000000000101 >
b11000001000000000000000000000101 C
b1 3
b1 ?
b1 D
b11100 8
b11100 S
b11100 V
b110 W
0/
1,
b100 E
b11000001000000000000000000000101 .
b11000001000000000000000000000101 A
b11000001000000000000000000000101 X
1'
#320000
0'
#325000
b10 G
0[
0;
1I
1=
b11000010000000000000000000000101 4
b11000010000000000000000000000101 >
b11000010000000000000000000000101 C
b10 3
b10 ?
b10 D
b11100 6
b11100 \
b11100 _
b110 `
b1 E
1)
0,
b11000010000000000000000000000101 +
b11000010000000000000000000000101 @
b11000010000000000000000000000101 a
1'
#330000
0'
#335000
b100 G
1R
1<
0I
0=
b11000000000000000000000000000110 4
b11000000000000000000000000000110 >
b11000000000000000000000000000110 C
b0 3
b0 ?
b0 D
b11101 :
b11101 J
b11101 M
b111 N
1/
0)
b10 E
b11000000000000000000000000000110 1
b11000000000000000000000000000110 B
b11000000000000000000000000000110 O
1'
#340000
0'
#345000
b1 G
1[
1;
0R
0<
b11000001000000000000000000000110 4
b11000001000000000000000000000110 >
b11000001000000000000000000000110 C
b1 3
b1 ?
b1 D
b11101 8
b11101 S
b11101 V
b111 W
b100 E
1,
0/
b11000001000000000000000000000110 .
b11000001000000000000000000000110 A
b11000001000000000000000000000110 X
1'
#350000
0'
#355000
b10 G
0[
0;
1I
1=
b11000010000000000000000000000110 4
b11000010000000000000000000000110 >
b11000010000000000000000000000110 C
b10 3
b10 ?
b10 D
b11101 6
b11101 \
b11101 _
b111 `
0,
1)
b1 E
b11000010000000000000000000000110 +
b11000010000000000000000000000110 @
b11000010000000000000000000000110 a
1'
#360000
0'
#365000
b100 G
1R
1<
0I
0=
b11000000000000000000000000000111 4
b11000000000000000000000000000111 >
b11000000000000000000000000000111 C
b0 3
b0 ?
b0 D
b11110 :
b11110 J
b11110 M
b1000 N
b10 E
0)
1/
b11000000000000000000000000000111 1
b11000000000000000000000000000111 B
b11000000000000000000000000000111 O
1'
#370000
0'
#375000
b1 G
1[
1;
0R
0<
b11000001000000000000000000000111 4
b11000001000000000000000000000111 >
b11000001000000000000000000000111 C
b1 3
b1 ?
b1 D
b11110 8
b11110 S
b11110 V
b1000 W
0/
1,
b100 E
b11000001000000000000000000000111 .
b11000001000000000000000000000111 A
b11000001000000000000000000000111 X
1'
#380000
0'
#385000
b10 G
0[
0;
1I
1=
b11000010000000000000000000000111 4
b11000010000000000000000000000111 >
b11000010000000000000000000000111 C
b10 3
b10 ?
b10 D
b11110 6
b11110 \
b11110 _
b1000 `
b1 E
1)
0,
b11000010000000000000000000000111 +
b11000010000000000000000000000111 @
b11000010000000000000000000000111 a
1'
#390000
0'
#395000
b100 G
1R
1<
0I
0=
b11000000000000000000000000001000 4
b11000000000000000000000000001000 >
b11000000000000000000000000001000 C
b0 3
b0 ?
b0 D
b11111 :
b11111 J
b11111 M
b1001 N
1/
0)
b10 E
b11000000000000000000000000001000 1
b11000000000000000000000000001000 B
b11000000000000000000000000001000 O
1'
#400000
0'
#405000
b1 G
1[
1;
0R
0<
b11000001000000000000000000001000 4
b11000001000000000000000000001000 >
b11000001000000000000000000001000 C
b1 3
b1 ?
b1 D
b11111 8
b11111 S
b11111 V
b1001 W
b100 E
1,
0/
b11000001000000000000000000001000 .
b11000001000000000000000000001000 A
b11000001000000000000000000001000 X
1'
#410000
0'
#415000
b10 G
0[
0;
1I
1=
b11000010000000000000000000001000 4
b11000010000000000000000000001000 >
b11000010000000000000000000001000 C
b10 3
b10 ?
b10 D
b11111 6
b11111 \
b11111 _
b1001 `
0,
1)
b1 E
b11000010000000000000000000001000 +
b11000010000000000000000000001000 @
b11000010000000000000000000001000 a
1'
#420000
0'
#425000
00
b100 G
1R
1<
0I
0=
b11000000000000000000000000001001 4
b11000000000000000000000000001001 >
b11000000000000000000000000001001 C
b0 3
b0 ?
b0 D
1L
b100000 :
b100000 J
b100000 M
b1010 N
b10 E
0)
1/
b11000000000000000000000000001001 1
b11000000000000000000000000001001 B
b11000000000000000000000000001001 O
1'
#430000
0'
#435000
0-
b100 G
1[
1;
0R
0<
b11000001000000000000000000001001 4
b11000001000000000000000000001001 >
b11000001000000000000000000001001 C
b1 3
b1 ?
b1 D
1U
b100000 8
b100000 S
b100000 V
b1010 W
0/
1,
b100 E
b11000001000000000000000000001001 .
b11000001000000000000000000001001 A
b11000001000000000000000000001001 X
1'
#440000
0'
#445000
b0 G
0*
b11000010000000000000000000001001 4
b11000010000000000000000000001001 >
b11000010000000000000000000001001 C
b10 3
b10 ?
b10 D
1^
b100000 6
b100000 \
b100000 _
b1010 `
1)
0,
b11000010000000000000000000001001 +
b11000010000000000000000000001001 @
b11000010000000000000000000001001 a
1'
#450000
0'
#455000
b11111111111111111111111111111111 4
b11111111111111111111111111111111 >
b11111111111111111111111111111111 C
b11 3
b11 ?
b11 D
02
0F
0[
0;
0)
b0 E
1'
